<?xml version="1.0" encoding="UTF-8" standalone="no"?>
<svg
   viewBox="0 0 100 100"
   width="512px"
   height="512px"
   version="1.1"
   id="svg16"
   sodipodi:docname="snapchat.svg"
   inkscape:version="1.2.2 (b0a8486541, 2022-12-01)"
   xmlns:inkscape="http://www.inkscape.org/namespaces/inkscape"
   xmlns:sodipodi="http://sodipodi.sourceforge.net/DTD/sodipodi-0.dtd"
   xmlns="http://www.w3.org/2000/svg"
   xmlns:svg="http://www.w3.org/2000/svg">
  <defs
     id="defs20" />
  <sodipodi:namedview
     id="namedview18"
     pagecolor="#ffffff"
     bordercolor="#000000"
     borderopacity="0.25"
     inkscape:showpageshadow="2"
     inkscape:pageopacity="0.0"
     inkscape:pagecheckerboard="0"
     inkscape:deskcolor="#d1d1d1"
     showgrid="false"
     inkscape:zoom="0.83940882"
     inkscape:cx="-201.92783"
     inkscape:cy="262.08922"
     inkscape:window-width="1920"
     inkscape:window-height="919"
     inkscape:window-x="0"
     inkscape:window-y="32"
     inkscape:window-maximized="1"
     inkscape:current-layer="layer3" />
  <path
     fill="#fdfcee"
     d="m 52.190075,76.394442 c -0.142204,0 -0.28281,-0.0047 -0.423416,-0.01119 v 0 c -0.08947,0.0063 -0.182148,0.01119 -0.276418,0.01119 -3.27868,0 -5.384576,-1.509024 -7.420169,-2.970244 -1.40606,-1.007079 -2.73223,-1.958387 -4.294875,-2.222905 -0.762149,-0.127477 -1.521103,-0.192811 -2.254491,-0.192811 -1.321378,0 -2.363141,0.207154 -3.125292,0.358534 -0.461762,0.09243 -0.861211,0.170502 -1.164791,0.170502 -0.316364,0 -0.65989,-0.07012 -0.808487,-0.5864 -0.129428,-0.447767 -0.22369,-0.881195 -0.313167,-1.301872 -0.23168,-1.080379 -0.397851,-1.744861 -0.843638,-1.814973 -5.200825,-0.815861 -6.689973,-1.926516 -7.022315,-2.715289 -0.04633,-0.113148 -0.0735,-0.226274 -0.07989,-0.337818 -0.01758,-0.302761 0.19493,-0.570465 0.490523,-0.619863 7.995374,-1.335336 11.580829,-9.626209 11.729425,-9.978368 0.0048,-0.0095 0.008,-0.01912 0.01283,-0.02868 0.488926,-1.005482 0.584793,-1.880303 0.286005,-2.595774 -0.548045,-1.311435 -2.337576,-1.888275 -3.523141,-2.269116 -0.289201,-0.09243 -0.564023,-0.181657 -0.781323,-0.267706 -2.363141,-0.948119 -2.561267,-1.921735 -2.466997,-2.417307 0.158183,-0.844543 1.271845,-1.43413 2.171405,-1.43413 0.247658,0 0.464959,0.04462 0.647109,0.130667 1.06413,0.505135 2.021211,0.761683 2.848871,0.761683 1.142424,0 1.640935,-0.487603 1.701652,-0.551342 -0.02877,-0.549752 -0.06551,-1.12181 -0.102256,-1.714584 -0.23807,-3.835505 -0.533664,-8.600008 0.663088,-11.32167 3.583856,-8.153834 11.184574,-8.788038 13.429478,-8.788038 0.05753,0 0.335538,0 0.335538,0 h 0.94909 c 15.179068,-0.0016 13.614824,16.114855 13.395926,21.035519 l -0.0095,0.160941 c -0.03195,0.516288 -0.06232,1.016642 -0.08787,1.496279 0.05592,0.05735 0.498512,0.49079 1.500331,0.529033 h 0.0016 c 0.760551,-0.03027 1.634545,-0.275671 2.594821,-0.731406 0.281214,-0.133852 0.592782,-0.160941 0.806888,-0.160941 0.324352,0 0.653498,0.06372 0.926721,0.180062 l 0.01598,0.0063 c 0.776529,0.278858 1.284629,0.831796 1.295814,1.407043 0.0095,0.543374 -0.397853,1.359236 -2.403086,2.16235 -0.207715,0.08287 -0.472949,0.168909 -0.75416,0.258144 -1.14562,0.369687 -2.874437,0.925811 -3.404905,2.192627 -0.289201,0.691571 -0.19653,1.534522 0.276419,2.508137 0.0048,0.0096 0.0095,0.01912 0.01283,0.02868 0.1438,0.339411 3.606226,8.351425 11.336366,9.643737 0.286004,0.0478 0.488924,0.305947 0.472946,0.599147 -0.0063,0.109953 -0.03356,0.219902 -0.07829,0.328257 -0.31956,0.756903 -1.755979,1.829316 -6.784245,2.618087 -0.410634,0.06373 -0.570413,0.607116 -0.814876,1.746454 -0.08948,0.414304 -0.178953,0.822235 -0.303582,1.249287 -0.107047,0.37128 -0.335537,0.544969 -0.719009,0.544969 h 0.621544 c -0.276418,0 -0.667878,-0.0494 -1.164793,-0.148193 -0.880386,-0.175282 -1.867824,-0.336224 -3.125291,-0.336224 -0.733389,0 -1.492341,0.06532 -2.256088,0.192812 -1.561047,0.264518 -2.885619,1.212637 -4.288486,2.219715 -2.043582,1.467595 -4.147879,2.97662 -7.428155,2.97662 z"
     id="path12"
     style="stroke-width:1.59564" />
  <g
     inkscape:groupmode="layer"
     id="layer3"
     inkscape:label="Circle">
    <ellipse
       style="fill:#f3ff00;fill-opacity:1;stroke-width:0.219177"
       id="path899"
       cx="50.204098"
       cy="50.101955"
       rx="49.969681"
       ry="49.796535" />
  </g>
  <g
     inkscape:groupmode="layer"
     id="layer1"
     inkscape:label="Logo">
    <path
       style="fill:#ffffff;fill-opacity:1;stroke-width:1.59562;stroke-dasharray:none"
       d="m 50.720326,22.707975 c 7.065688,1.816761 7.065688,1.816761 7.065688,1.816761 l 4.585286,3.506419 2.143465,5.481191 0.196663,11.738193 0.481499,1.040069 2.295671,-0.123182 2.55581,-0.945398 1.14003,1.186817 0.547868,0.791834 -2.625738,2.065594 -2.868945,1.020024 -1.474522,1.565042 0.940354,2.328242 1.360689,3.425665 4.878156,4.166701 4.58814,1.761305 0.748469,0.713389 -0.610674,1.054082 -2.572113,1.285735 -3.067914,0.768409 c -0.219559,0.03231 -1.293038,0.591712 -1.293038,0.591712 l -0.676323,3.016776 -5.325839,-0.51177 -5.517196,1.912987 -3.715528,2.725655 -5.231363,0.897638 -3.670112,-1.180349 -3.192972,-2.563188 c -0.322542,-0.09822 -2.802687,-1.206107 -2.802687,-1.206107 -0.451556,-0.343777 -2.376627,-0.532875 -2.376627,-0.532875 -0.285707,-0.113704 -2.889922,-0.03145 -2.889922,-0.03145 -0.370926,0.09821 -1.461028,0.436687 -1.461028,0.436687 l -1.184353,0.268407 -0.65278,-0.643928 -0.169035,-0.633128 -0.0323,-0.868696 -0.198774,-0.455989 -0.451098,-0.833475 -0.570758,-0.692048 c -0.206014,-0.09684 -1.8823,-0.518451 -1.8823,-0.518451 l -2.868091,-0.384162 -0.564698,-0.277441 c -0.241901,-0.163702 -0.999883,-0.867621 -0.999883,-0.867621 -0.17653,-0.309265 -0.349006,-0.556565 -0.349006,-0.556565 l -0.320291,-0.981267 1.837234,-0.241111 4.59324,-2.327256 3.405323,-3.518918 1.140112,-1.206244 1.117101,-1.505698 1.24175,-2.644661 -0.535484,-1.467891 -1.675784,-1.173042 -3.017868,-0.904613 -1.63229,-1.146479 -0.538658,-1.392554 1.14762,-1.21687 1.171957,-0.344696 3.448149,0.826246 1.775763,-0.382225 -0.336833,-8.334652 0.236543,-3.797088 1.924536,-3.574512 2.320834,-2.686201 2.422427,-1.289997 3.492202,-1.606122 3.270428,-0.771497 z"
       id="path1153" />
  </g>
  <g
     inkscape:groupmode="layer"
     id="layer4"
     inkscape:label="outline">
    <path
       fill="#1f212b"
       d="m 51.044551,77.191183 c -0.154987,0 -0.305179,-0.0047 -0.458569,-0.01119 -0.01283,0.0063 -0.127817,0.01119 -0.239668,0.01119 -3.537523,0 -5.846338,-1.657219 -7.886724,-3.120033 -1.32777,-0.952901 -2.582041,-1.851623 -3.962536,-2.084271 -2.019613,-0.337818 -3.95934,-0.06376 -5.088981,0.160942 -0.503306,0.09879 -0.937907,0.186437 -1.321378,0.186437 -1.081708,0 -1.450799,-0.729815 -1.575427,-1.164834 -0.135817,-0.465295 -0.233279,-0.917844 -0.32755,-1.356051 -0.07509,-0.350565 -0.20931,-0.973615 -0.32595,-1.214232 -4.445069,-0.710691 -6.897687,-1.749639 -7.493664,-3.172616 -0.08147,-0.192812 -0.127819,-0.390402 -0.142204,-0.589588 -0.03675,-0.723439 0.460165,-1.344895 1.156804,-1.461221 7.53361,-1.258848 10.983253,-9.167286 11.127055,-9.503509 0.41383,-0.857293 0.503306,-1.509026 0.29719,-2.006192 -0.409035,-0.975208 -1.98766,-1.483528 -3.03102,-1.818158 -0.313167,-0.10039 -0.603967,-0.194405 -0.832452,-0.286827 -2.745014,-1.099501 -3.122094,-2.402967 -2.955923,-3.301689 0.313168,-1.67156 2.674711,-2.481047 3.946556,-1.878711 0.957082,0.454141 1.79912,0.685195 2.505347,0.685195 0.417025,0 0.699833,-0.07967 0.880384,-0.157755 -0.02397,-0.409523 -0.04953,-0.830202 -0.07669,-1.26044 -0.242866,-3.916773 -0.548045,-8.791226 0.728596,-11.69136 3.778789,-8.596819 11.793336,-9.264486 14.159672,-9.264486 h 1.284627 0.0016 c 4.333223,0 7.747715,1.277969 10.149203,3.798853 4.718294,4.954126 4.288485,13.310332 4.080772,17.324307 l -0.108654,1.958385 c 0.154986,0.06532 0.385068,0.129073 0.706225,0.140227 0.591185,-0.02549 1.359725,-0.245396 2.222534,-0.654919 1.027385,-0.486012 1.767165,-0.259738 2.390305,0.0047 1.064131,0.380841 1.779944,1.222198 1.797521,2.132075 0.02078,1.155272 -0.958679,2.136857 -2.904794,2.917661 -0.218898,0.08764 -0.49372,0.176876 -0.784519,0.270891 -1.027383,0.331443 -2.546887,0.819049 -2.933553,1.748047 -0.198128,0.47167 -0.11185,1.096313 0.257244,1.85481 0.166171,0.391996 3.462424,8.013606 10.76116,9.232618 0.687053,0.116322 1.175977,0.729814 1.139229,1.427757 -0.01119,0.207153 -0.05912,0.409524 -0.143802,0.602337 -0.576804,1.370391 -2.949532,2.37747 -7.247605,3.064261 -0.110246,0.246988 -0.242864,0.865259 -0.303581,1.148898 -0.09427,0.431833 -0.18854,0.855699 -0.316364,1.301873 -0.143801,0.493978 -0.445785,0.841356 -0.864408,1.008672 v 0.113126 l -0.62314,-0.0462 c -0.207714,-0.02709 -0.439394,-0.06692 -0.699836,-0.117916 -0.837245,-0.165721 -1.776748,-0.320289 -2.967108,-0.320289 -0.68865,0 -1.402863,0.06215 -2.12347,0.181657 -1.378899,0.232648 -2.629974,1.129776 -3.956145,2.081084 -2.046778,1.467594 -4.35879,3.126406 -7.89631,3.126406 z M 50.55882,75.589735 c 0.226887,0.0031 0.35631,0.0079 0.485731,0.0079 3.02303,0 4.932397,-1.370394 6.956807,-2.822052 1.481155,-1.062851 2.87763,-2.063557 4.624021,-2.359943 0.811681,-0.135446 1.615374,-0.203965 2.390304,-0.203965 1.329367,0 2.363141,0.168908 3.280276,0.352158 0.151791,0.03028 0.282811,0.05259 0.397852,0.07171 0.06871,-0.360126 0.150191,-0.729812 0.230083,-1.104281 0.244461,-1.136151 0.476143,-2.21175 1.474766,-2.366316 4.702314,-0.736187 5.833555,-1.661999 6.100386,-2.022126 C 68.540421,63.638616 64.98852,55.425824 64.838329,55.073664 64.266317,53.89449 64.167253,52.831639 64.549126,51.92017 c 0.669477,-1.606229 2.6108,-2.230871 3.895429,-2.643583 0.273223,-0.08923 0.512892,-0.165722 0.701431,-0.240615 1.509919,-0.605522 1.906174,-1.171207 1.901378,-1.408636 -0.0031,-0.192811 -0.274819,-0.49557 -0.766942,-0.670855 -0.426611,-0.178468 -0.889973,-0.173688 -1.136033,-0.05576 -1.057741,0.501946 -2.035593,0.77443 -2.906393,0.807893 -1.29741,-0.0478 -1.93493,-0.597554 -2.1011,-0.76487 l -0.247659,-0.251769 0.154985,-2.755126 C 64.240753,40.144402 64.64819,32.250305 60.401247,27.79175 58.312927,25.600717 55.289896,24.488469 51.412043,24.488469 h -0.0016 -1.284628 c -2.121873,0 -9.307166,0.599148 -12.696092,8.309993 -1.120056,2.547973 -0.830854,7.207307 -0.597575,10.951983 0.03675,0.594368 0.0735,1.169614 0.10067,1.722552 l 0.01919,0.341004 -0.236475,0.248582 c -0.178952,0.186437 -0.870799,0.798333 -2.281652,0.798333 -0.947494,0 -2.022811,-0.282045 -3.192398,-0.839762 -0.04953,-0.02391 -0.145398,-0.05259 -0.301984,-0.05259 -0.602369,0 -1.314986,0.40315 -1.386888,0.783992 -0.04314,0.235834 0.31317,0.863664 1.981268,1.531333 0.199724,0.07967 0.452178,0.160941 0.719009,0.245396 1.330964,0.428645 3.331406,1.070819 4.02485,2.724849 0.391459,0.936966 0.2892,2.030094 -0.303581,3.249105 -0.151793,0.358534 -3.861874,8.861339 -12.064962,10.399045 0.308374,0.431834 1.511516,1.391108 6.340056,2.146418 1.009808,0.157752 1.24788,1.262034 1.500331,2.433242 0.08469,0.404743 0.175757,0.820642 0.300386,1.247694 0.278015,0.0047 0.648705,-0.06532 1.049753,-0.143415 0.792506,-0.157753 1.879009,-0.372873 3.280274,-0.372873 0.77653,0 1.578623,0.06851 2.387108,0.203966 1.746392,0.296387 3.146063,1.298686 4.62722,2.359943 2.024408,1.45166 3.932176,2.822051 6.955209,2.822051 0.06711,-0.0016 0.139008,-0.0047 0.209311,-0.0096 z m 20.084302,-6.850366 z"
       id="path14"
       style="fill:#00002b;fill-opacity:1;stroke-width:1.59561;stroke-dasharray:none" />
  </g>
</svg>
